^C:\USERS\SCOTT\DESKTOP\HNDYEAR2 COLLAGE WORK\LORDSOFIRON\LORDSOFIRON\DEBUG\ANIMATINGOBJECT.OBJ|C:\USERS\SCOTT\DESKTOP\HNDYEAR2 COLLAGE WORK\LORDSOFIRON\LORDSOFIRON\DEBUG\ASSETMANAGER.OBJ|C:\USERS\SCOTT\DESKTOP\HNDYEAR2 COLLAGE WORK\LORDSOFIRON\LORDSOFIRON\DEBUG\BADGUYZ.OBJ|C:\USERS\SCOTT\DESKTOP\HNDYEAR2 COLLAGE WORK\LORDSOFIRON\LORDSOFIRON\DEBUG\EXITE.OBJ|C:\USERS\SCOTT\DESKTOP\HNDYEAR2 COLLAGE WORK\LORDSOFIRON\LORDSOFIRON\DEBUG\EXITT.OBJ|C:\USERS\SCOTT\DESKTOP\HNDYEAR2 COLLAGE WORK\LORDSOFIRON\LORDSOFIRON\DEBUG\FLOOR.OBJ|C:\USERS\SCOTT\DESKTOP\HNDYEAR2 COLLAGE WORK\LORDSOFIRON\LORDSOFIRON\DEBUG\GAME.OBJ|C:\USERS\SCOTT\DESKTOP\HNDYEAR2 COLLAGE WORK\LORDSOFIRON\LORDSOFIRON\DEBUG\ITEMHEAL.OBJ|C:\USERS\SCOTT\DESKTOP\HNDYEAR2 COLLAGE WORK\LORDSOFIRON\LORDSOFIRON\DEBUG\LEVELSCREEN.OBJ|C:\USERS\SCOTT\DESKTOP\HNDYEAR2 COLLAGE WORK\LORDSOFIRON\LORDSOFIRON\DEBUG\MAIN.OBJ|C:\USERS\SCOTT\DESKTOP\HNDYEAR2 COLLAGE WORK\LORDSOFIRON\LORDSOFIRON\DEBUG\MENUSYSTEM.OBJ|C:\USERS\SCOTT\DESKTOP\HNDYEAR2 COLLAGE WORK\LORDSOFIRON\LORDSOFIRON\DEBUG\MUD.OBJ|C:\USERS\SCOTT\DESKTOP\HNDYEAR2 COLLAGE WORK\LORDSOFIRON\LORDSOFIRON\DEBUG\PLAYER.OBJ|C:\USERS\SCOTT\DESKTOP\HNDYEAR2 COLLAGE WORK\LORDSOFIRON\LORDSOFIRON\DEBUG\SPRITEOBJECT.OBJ|C:\USERS\SCOTT\DESKTOP\HNDYEAR2 COLLAGE WORK\LORDSOFIRON\LORDSOFIRON\DEBUG\TREEB.OBJ|C:\USERS\SCOTT\DESKTOP\HNDYEAR2 COLLAGE WORK\LORDSOFIRON\LORDSOFIRON\DEBUG\TREET.OBJ|C:\USERS\SCOTT\DESKTOP\HNDYEAR2 COLLAGE WORK\LORDSOFIRON\LORDSOFIRON\DEBUG\WALL.OBJ|C:\USERS\SCOTT\DESKTOP\HNDYEAR2 COLLAGE WORK\LORDSOFIRON\LORDSOFIRON\DEBUG\WALLEDGE.OBJ
C:\USERS\SCOTT\DESKTOP\HNDYEAR2 COLLAGE WORK\LORDSOFIRON\DEBUG\LORDSOFIRON.EXE
C:\USERS\SCOTT\DESKTOP\HNDYEAR2 COLLAGE WORK\LORDSOFIRON\LORDSOFIRON\DEBUG\LORDSOFIRON.ILK
C:\USERS\SCOTT\DESKTOP\HNDYEAR2 COLLAGE WORK\LORDSOFIRON\DEBUG\LORDSOFIRON.PDB
