^C:\USERS\SCOTT\DESKTOP\HNDYEAR2 COLLAGE WORK\LORDSOFIRON\LORDSOFIRON\DEBUG\ANIMATINGOBJECT.OBJ|C:\USERS\SCOTT\DESKTOP\HNDYEAR2 COLLAGE WORK\LORDSOFIRON\LORDSOFIRON\DEBUG\ASSETMANAGER.OBJ|C:\USERS\SCOTT\DESKTOP\HNDYEAR2 COLLAGE WORK\LORDSOFIRON\LORDSOFIRON\DEBUG\BADGUYZ.OBJ|C:\USERS\SCOTT\DESKTOP\HNDYEAR2 COLLAGE WORK\LORDSOFIRON\LORDSOFIRON\DEBUG\EXITE.OBJ|C:\USERS\SCOTT\DESKTOP\HNDYEAR2 COLLAGE WORK\LORDSOFIRON\LORDSOFIRON\DEBUG\EXITT.OBJ|C:\USERS\SCOTT\DESKTOP\HNDYEAR2 COLLAGE WORK\LORDSOFIRON\LORDSOFIRON\DEBUG\FLOOR.OBJ|C:\USERS\SCOTT\DESKTOP\HNDYEAR2 COLLAGE WORK\LORDSOFIRON\LORDSOFIRON\DEBUG\GAME.OBJ|C:\USERS\SCOTT\DESKTOP\HNDYEAR2 COLLAGE WORK\LORDSOFIRON\LORDSOFIRON\DEBUG\ITEMHEAL.OBJ|C:\USERS\SCOTT\DESKTOP\HNDYEAR2 COLLAGE WORK\LORDSOFIRON\LORDSOFIRON\DEBUG\LEVELSCREEN.OBJ|C:\USERS\SCOTT\DESKTOP\HNDYEAR2 COLLAGE WORK\LORDSOFIRON\LORDSOFIRON\DEBUG\MAIN.OBJ|C:\USERS\SCOTT\DESKTOP\HNDYEAR2 COLLAGE WORK\LORDSOFIRON\LORDSOFIRON\DEBUG\MENUSYSTEM.OBJ|C:\USERS\SCOTT\DESKTOP\HNDYEAR2 COLLAGE WORK\LORDSOFIRON\LORDSOFIRON\DEBUG\MUD.OBJ|C:\USERS\SCOTT\DESKTOP\HNDYEAR2 COLLAGE WORK\LORDSOFIRON\LORDSOFIRON\DEBUG\PLAYER.OBJ|C:\USERS\SCOTT\DESKTOP\HNDYEAR2 COLLAGE WORK\LORDSOFIRON\LORDSOFIRON\DEBUG\SPRITEOBJECT.OBJ|C:\USERS\SCOTT\DESKTOP\HNDYEAR2 COLLAGE WORK\LORDSOFIRON\LORDSOFIRON\DEBUG\TREEB.OBJ|C:\USERS\SCOTT\DESKTOP\HNDYEAR2 COLLAGE WORK\LORDSOFIRON\LORDSOFIRON\DEBUG\TREET.OBJ|C:\USERS\SCOTT\DESKTOP\HNDYEAR2 COLLAGE WORK\LORDSOFIRON\LORDSOFIRON\DEBUG\WALL.OBJ|C:\USERS\SCOTT\DESKTOP\HNDYEAR2 COLLAGE WORK\LORDSOFIRON\LORDSOFIRON\DEBUG\WALLEDGE.OBJ
C:\USERS\SCOTT\DESKTOP\HNDYEAR2 COLLAGE WORK\LORDSOFIRON\LORDSOFIRON\SFML-2.5.1\LIB\SFML-GRAPHICS-D.LIB
C:\USERS\SCOTT\DESKTOP\HNDYEAR2 COLLAGE WORK\LORDSOFIRON\LORDSOFIRON\SFML-2.5.1\LIB\SFML-WINDOW-D.LIB
C:\USERS\SCOTT\DESKTOP\HNDYEAR2 COLLAGE WORK\LORDSOFIRON\LORDSOFIRON\SFML-2.5.1\LIB\SFML-AUDIO-D.LIB
C:\USERS\SCOTT\DESKTOP\HNDYEAR2 COLLAGE WORK\LORDSOFIRON\LORDSOFIRON\SFML-2.5.1\LIB\SFML-SYSTEM-D.LIB
C:\PROGRAM FILES (X86)\WINDOWS KITS\10\LIB\10.0.19041.0\UM\X86\KERNEL32.LIB
C:\PROGRAM FILES (X86)\WINDOWS KITS\10\LIB\10.0.19041.0\UM\X86\USER32.LIB
C:\PROGRAM FILES (X86)\WINDOWS KITS\10\LIB\10.0.19041.0\UM\X86\GDI32.LIB
C:\PROGRAM FILES (X86)\WINDOWS KITS\10\LIB\10.0.19041.0\UM\X86\WINSPOOL.LIB
C:\PROGRAM FILES (X86)\WINDOWS KITS\10\LIB\10.0.19041.0\UM\X86\COMDLG32.LIB
C:\PROGRAM FILES (X86)\WINDOWS KITS\10\LIB\10.0.19041.0\UM\X86\ADVAPI32.LIB
C:\PROGRAM FILES (X86)\WINDOWS KITS\10\LIB\10.0.19041.0\UM\X86\SHELL32.LIB
C:\PROGRAM FILES (X86)\WINDOWS KITS\10\LIB\10.0.19041.0\UM\X86\OLE32.LIB
C:\PROGRAM FILES (X86)\WINDOWS KITS\10\LIB\10.0.19041.0\UM\X86\OLEAUT32.LIB
C:\PROGRAM FILES (X86)\WINDOWS KITS\10\LIB\10.0.19041.0\UM\X86\UUID.LIB
C:\PROGRAM FILES (X86)\WINDOWS KITS\10\LIB\10.0.19041.0\UM\X86\ODBC32.LIB
C:\PROGRAM FILES (X86)\WINDOWS KITS\10\LIB\10.0.19041.0\UM\X86\ODBCCP32.LIB
C:\USERS\SCOTT\DESKTOP\HNDYEAR2 COLLAGE WORK\LORDSOFIRON\LORDSOFIRON\DEBUG\ANIMATINGOBJECT.OBJ
C:\USERS\SCOTT\DESKTOP\HNDYEAR2 COLLAGE WORK\LORDSOFIRON\LORDSOFIRON\DEBUG\ASSETMANAGER.OBJ
C:\USERS\SCOTT\DESKTOP\HNDYEAR2 COLLAGE WORK\LORDSOFIRON\LORDSOFIRON\DEBUG\BADGUYZ.OBJ
C:\USERS\SCOTT\DESKTOP\HNDYEAR2 COLLAGE WORK\LORDSOFIRON\LORDSOFIRON\DEBUG\EXITE.OBJ
C:\USERS\SCOTT\DESKTOP\HNDYEAR2 COLLAGE WORK\LORDSOFIRON\LORDSOFIRON\DEBUG\EXITT.OBJ
C:\USERS\SCOTT\DESKTOP\HNDYEAR2 COLLAGE WORK\LORDSOFIRON\LORDSOFIRON\DEBUG\FLOOR.OBJ
C:\USERS\SCOTT\DESKTOP\HNDYEAR2 COLLAGE WORK\LORDSOFIRON\LORDSOFIRON\DEBUG\GAME.OBJ
C:\USERS\SCOTT\DESKTOP\HNDYEAR2 COLLAGE WORK\LORDSOFIRON\LORDSOFIRON\DEBUG\ITEMHEAL.OBJ
C:\USERS\SCOTT\DESKTOP\HNDYEAR2 COLLAGE WORK\LORDSOFIRON\LORDSOFIRON\DEBUG\LEVELSCREEN.OBJ
C:\USERS\SCOTT\DESKTOP\HNDYEAR2 COLLAGE WORK\LORDSOFIRON\LORDSOFIRON\DEBUG\MAIN.OBJ
C:\USERS\SCOTT\DESKTOP\HNDYEAR2 COLLAGE WORK\LORDSOFIRON\LORDSOFIRON\DEBUG\MENUSYSTEM.OBJ
C:\USERS\SCOTT\DESKTOP\HNDYEAR2 COLLAGE WORK\LORDSOFIRON\LORDSOFIRON\DEBUG\MUD.OBJ
C:\USERS\SCOTT\DESKTOP\HNDYEAR2 COLLAGE WORK\LORDSOFIRON\LORDSOFIRON\DEBUG\PLAYER.OBJ
C:\USERS\SCOTT\DESKTOP\HNDYEAR2 COLLAGE WORK\LORDSOFIRON\LORDSOFIRON\DEBUG\SPRITEOBJECT.OBJ
C:\USERS\SCOTT\DESKTOP\HNDYEAR2 COLLAGE WORK\LORDSOFIRON\LORDSOFIRON\DEBUG\TREEB.OBJ
C:\USERS\SCOTT\DESKTOP\HNDYEAR2 COLLAGE WORK\LORDSOFIRON\LORDSOFIRON\DEBUG\TREET.OBJ
C:\USERS\SCOTT\DESKTOP\HNDYEAR2 COLLAGE WORK\LORDSOFIRON\LORDSOFIRON\DEBUG\WALL.OBJ
C:\USERS\SCOTT\DESKTOP\HNDYEAR2 COLLAGE WORK\LORDSOFIRON\LORDSOFIRON\DEBUG\WALLEDGE.OBJ
C:\USERS\SCOTT\DESKTOP\HNDYEAR2 COLLAGE WORK\LORDSOFIRON\LORDSOFIRON\DEBUG\LORDSOFIRON.ILK
C:\WINDOWS\SYSTEM32\TZRES.DLL
C:\WINDOWS\GLOBALIZATION\SORTING\SORTDEFAULT.NLS
C:\PROGRAM FILES (X86)\MICROSOFT VISUAL STUDIO\2019\ENTERPRISE\VC\TOOLS\MSVC\14.29.30037\LIB\X86\MSVCPRTD.LIB
C:\PROGRAM FILES (X86)\MICROSOFT VISUAL STUDIO\2019\ENTERPRISE\VC\TOOLS\MSVC\14.29.30037\LIB\X86\MSVCRTD.LIB
C:\PROGRAM FILES (X86)\MICROSOFT VISUAL STUDIO\2019\ENTERPRISE\VC\TOOLS\MSVC\14.29.30037\LIB\X86\OLDNAMES.LIB
C:\PROGRAM FILES (X86)\MICROSOFT VISUAL STUDIO\2019\ENTERPRISE\VC\TOOLS\MSVC\14.29.30037\LIB\X86\VCRUNTIMED.LIB
C:\PROGRAM FILES (X86)\WINDOWS KITS\10\LIB\10.0.19041.0\UCRT\X86\UCRTD.LIB
C:\PROGRAM FILES (X86)\MICROSOFT VISUAL STUDIO\2019\ENTERPRISE\VC\TOOLS\MSVC\14.29.30037\BIN\HOSTX86\X86\MSPDBSRV.EXE
