^C:\USERS\SCOTT\DESKTOP\HNDYEAR2 COLLAGE WORK\LORDSOFIRON\LORDSOFIRON\ANIMATINGOBJECT.CPP
/c /I"SFML-2.5.1\INCLUDE" /Zi /nologo /W3 /WX- /diagnostics:column /sdl /O2 /Oi /Oy- /GL /D _MBCS /Gm- /EHsc /MD /GS /Gy /fp:precise /permissive- /Zc:wchar_t /Zc:forScope /Zc:inline /Fo"RELEASE\\" /Fd"RELEASE\VC142.PDB" /external:W3 /Gd /TP /analyze- /FC C:\USERS\SCOTT\DESKTOP\HNDYEAR2 COLLAGE WORK\LORDSOFIRON\LORDSOFIRON\ANIMATINGOBJECT.CPP
^C:\USERS\SCOTT\DESKTOP\HNDYEAR2 COLLAGE WORK\LORDSOFIRON\LORDSOFIRON\ASSETMANAGER.CPP
/c /I"SFML-2.5.1\INCLUDE" /Zi /nologo /W3 /WX- /diagnostics:column /sdl /O2 /Oi /Oy- /GL /D _MBCS /Gm- /EHsc /MD /GS /Gy /fp:precise /permissive- /Zc:wchar_t /Zc:forScope /Zc:inline /Fo"RELEASE\\" /Fd"RELEASE\VC142.PDB" /external:W3 /Gd /TP /analyze- /FC C:\USERS\SCOTT\DESKTOP\HNDYEAR2 COLLAGE WORK\LORDSOFIRON\LORDSOFIRON\ASSETMANAGER.CPP
^C:\USERS\SCOTT\DESKTOP\HNDYEAR2 COLLAGE WORK\LORDSOFIRON\LORDSOFIRON\FLOOR.CPP
/c /I"SFML-2.5.1\INCLUDE" /Zi /nologo /W3 /WX- /diagnostics:column /sdl /O2 /Oi /Oy- /GL /D _MBCS /Gm- /EHsc /MD /GS /Gy /fp:precise /permissive- /Zc:wchar_t /Zc:forScope /Zc:inline /Fo"RELEASE\\" /Fd"RELEASE\VC142.PDB" /external:W3 /Gd /TP /analyze- /FC C:\USERS\SCOTT\DESKTOP\HNDYEAR2 COLLAGE WORK\LORDSOFIRON\LORDSOFIRON\FLOOR.CPP
^C:\USERS\SCOTT\DESKTOP\HNDYEAR2 COLLAGE WORK\LORDSOFIRON\LORDSOFIRON\MENUSYSTEM.CPP
/c /I"SFML-2.5.1\INCLUDE" /Zi /nologo /W3 /WX- /diagnostics:column /sdl /O2 /Oi /Oy- /GL /D _MBCS /Gm- /EHsc /MD /GS /Gy /fp:precise /permissive- /Zc:wchar_t /Zc:forScope /Zc:inline /Fo"RELEASE\\" /Fd"RELEASE\VC142.PDB" /external:W3 /Gd /TP /analyze- /FC C:\USERS\SCOTT\DESKTOP\HNDYEAR2 COLLAGE WORK\LORDSOFIRON\LORDSOFIRON\MENUSYSTEM.CPP
^C:\USERS\SCOTT\DESKTOP\HNDYEAR2 COLLAGE WORK\LORDSOFIRON\LORDSOFIRON\MUD.CPP
/c /I"SFML-2.5.1\INCLUDE" /Zi /nologo /W3 /WX- /diagnostics:column /sdl /O2 /Oi /Oy- /GL /D _MBCS /Gm- /EHsc /MD /GS /Gy /fp:precise /permissive- /Zc:wchar_t /Zc:forScope /Zc:inline /Fo"RELEASE\\" /Fd"RELEASE\VC142.PDB" /external:W3 /Gd /TP /analyze- /FC C:\USERS\SCOTT\DESKTOP\HNDYEAR2 COLLAGE WORK\LORDSOFIRON\LORDSOFIRON\MUD.CPP
^C:\USERS\SCOTT\DESKTOP\HNDYEAR2 COLLAGE WORK\LORDSOFIRON\LORDSOFIRON\PLAYERKNIFE.CPP
/c /I"SFML-2.5.1\INCLUDE" /Zi /nologo /W3 /WX- /diagnostics:column /sdl /O2 /Oi /Oy- /GL /D _MBCS /Gm- /EHsc /MD /GS /Gy /fp:precise /permissive- /Zc:wchar_t /Zc:forScope /Zc:inline /Fo"RELEASE\\" /Fd"RELEASE\VC142.PDB" /external:W3 /Gd /TP /analyze- /FC C:\USERS\SCOTT\DESKTOP\HNDYEAR2 COLLAGE WORK\LORDSOFIRON\LORDSOFIRON\PLAYERKNIFE.CPP
^C:\USERS\SCOTT\DESKTOP\HNDYEAR2 COLLAGE WORK\LORDSOFIRON\LORDSOFIRON\SPRITEOBJECT.CPP
/c /I"SFML-2.5.1\INCLUDE" /Zi /nologo /W3 /WX- /diagnostics:column /sdl /O2 /Oi /Oy- /GL /D _MBCS /Gm- /EHsc /MD /GS /Gy /fp:precise /permissive- /Zc:wchar_t /Zc:forScope /Zc:inline /Fo"RELEASE\\" /Fd"RELEASE\VC142.PDB" /external:W3 /Gd /TP /analyze- /FC C:\USERS\SCOTT\DESKTOP\HNDYEAR2 COLLAGE WORK\LORDSOFIRON\LORDSOFIRON\SPRITEOBJECT.CPP
^C:\USERS\SCOTT\DESKTOP\HNDYEAR2 COLLAGE WORK\LORDSOFIRON\LORDSOFIRON\TREEB.CPP
/c /I"SFML-2.5.1\INCLUDE" /Zi /nologo /W3 /WX- /diagnostics:column /sdl /O2 /Oi /Oy- /GL /D _MBCS /Gm- /EHsc /MD /GS /Gy /fp:precise /permissive- /Zc:wchar_t /Zc:forScope /Zc:inline /Fo"RELEASE\\" /Fd"RELEASE\VC142.PDB" /external:W3 /Gd /TP /analyze- /FC C:\USERS\SCOTT\DESKTOP\HNDYEAR2 COLLAGE WORK\LORDSOFIRON\LORDSOFIRON\TREEB.CPP
^C:\USERS\SCOTT\DESKTOP\HNDYEAR2 COLLAGE WORK\LORDSOFIRON\LORDSOFIRON\TREET.CPP
/c /I"SFML-2.5.1\INCLUDE" /Zi /nologo /W3 /WX- /diagnostics:column /sdl /O2 /Oi /Oy- /GL /D _MBCS /Gm- /EHsc /MD /GS /Gy /fp:precise /permissive- /Zc:wchar_t /Zc:forScope /Zc:inline /Fo"RELEASE\\" /Fd"RELEASE\VC142.PDB" /external:W3 /Gd /TP /analyze- /FC C:\USERS\SCOTT\DESKTOP\HNDYEAR2 COLLAGE WORK\LORDSOFIRON\LORDSOFIRON\TREET.CPP
^C:\USERS\SCOTT\DESKTOP\HNDYEAR2 COLLAGE WORK\LORDSOFIRON\LORDSOFIRON\WALL.CPP
/c /I"SFML-2.5.1\INCLUDE" /Zi /nologo /W3 /WX- /diagnostics:column /sdl /O2 /Oi /Oy- /GL /D _MBCS /Gm- /EHsc /MD /GS /Gy /fp:precise /permissive- /Zc:wchar_t /Zc:forScope /Zc:inline /Fo"RELEASE\\" /Fd"RELEASE\VC142.PDB" /external:W3 /Gd /TP /analyze- /FC C:\USERS\SCOTT\DESKTOP\HNDYEAR2 COLLAGE WORK\LORDSOFIRON\LORDSOFIRON\WALL.CPP
^C:\USERS\SCOTT\DESKTOP\HNDYEAR2 COLLAGE WORK\LORDSOFIRON\LORDSOFIRON\WALLEDGE.CPP
/c /I"SFML-2.5.1\INCLUDE" /Zi /nologo /W3 /WX- /diagnostics:column /sdl /O2 /Oi /Oy- /GL /D _MBCS /Gm- /EHsc /MD /GS /Gy /fp:precise /permissive- /Zc:wchar_t /Zc:forScope /Zc:inline /Fo"RELEASE\\" /Fd"RELEASE\VC142.PDB" /external:W3 /Gd /TP /analyze- /FC C:\USERS\SCOTT\DESKTOP\HNDYEAR2 COLLAGE WORK\LORDSOFIRON\LORDSOFIRON\WALLEDGE.CPP
^C:\USERS\SCOTT\DESKTOP\HNDYEAR2 COLLAGE WORK\LORDSOFIRON\LORDSOFIRON\BADGUYZ.CPP
/c /I"SFML-2.5.1\INCLUDE" /Zi /nologo /W3 /WX- /diagnostics:column /sdl /O2 /Oi /Oy- /GL /D _MBCS /Gm- /EHsc /MD /GS /Gy /fp:precise /permissive- /Zc:wchar_t /Zc:forScope /Zc:inline /Fo"RELEASE\\" /Fd"RELEASE\VC142.PDB" /external:W3 /Gd /TP /analyze- /FC C:\USERS\SCOTT\DESKTOP\HNDYEAR2 COLLAGE WORK\LORDSOFIRON\LORDSOFIRON\BADGUYZ.CPP
^C:\USERS\SCOTT\DESKTOP\HNDYEAR2 COLLAGE WORK\LORDSOFIRON\LORDSOFIRON\EXITE.CPP
/c /I"SFML-2.5.1\INCLUDE" /Zi /nologo /W3 /WX- /diagnostics:column /sdl /O2 /Oi /Oy- /GL /D _MBCS /Gm- /EHsc /MD /GS /Gy /fp:precise /permissive- /Zc:wchar_t /Zc:forScope /Zc:inline /Fo"RELEASE\\" /Fd"RELEASE\VC142.PDB" /external:W3 /Gd /TP /analyze- /FC C:\USERS\SCOTT\DESKTOP\HNDYEAR2 COLLAGE WORK\LORDSOFIRON\LORDSOFIRON\EXITE.CPP
^C:\USERS\SCOTT\DESKTOP\HNDYEAR2 COLLAGE WORK\LORDSOFIRON\LORDSOFIRON\EXITT.CPP
/c /I"SFML-2.5.1\INCLUDE" /Zi /nologo /W3 /WX- /diagnostics:column /sdl /O2 /Oi /Oy- /GL /D _MBCS /Gm- /EHsc /MD /GS /Gy /fp:precise /permissive- /Zc:wchar_t /Zc:forScope /Zc:inline /Fo"RELEASE\\" /Fd"RELEASE\VC142.PDB" /external:W3 /Gd /TP /analyze- /FC C:\USERS\SCOTT\DESKTOP\HNDYEAR2 COLLAGE WORK\LORDSOFIRON\LORDSOFIRON\EXITT.CPP
^C:\USERS\SCOTT\DESKTOP\HNDYEAR2 COLLAGE WORK\LORDSOFIRON\LORDSOFIRON\GAME.CPP
/c /I"SFML-2.5.1\INCLUDE" /Zi /nologo /W3 /WX- /diagnostics:column /sdl /O2 /Oi /Oy- /GL /D _MBCS /Gm- /EHsc /MD /GS /Gy /fp:precise /permissive- /Zc:wchar_t /Zc:forScope /Zc:inline /Fo"RELEASE\\" /Fd"RELEASE\VC142.PDB" /external:W3 /Gd /TP /analyze- /FC C:\USERS\SCOTT\DESKTOP\HNDYEAR2 COLLAGE WORK\LORDSOFIRON\LORDSOFIRON\GAME.CPP
^C:\USERS\SCOTT\DESKTOP\HNDYEAR2 COLLAGE WORK\LORDSOFIRON\LORDSOFIRON\ITEMHEAL.CPP
/c /I"SFML-2.5.1\INCLUDE" /Zi /nologo /W3 /WX- /diagnostics:column /sdl /O2 /Oi /Oy- /GL /D _MBCS /Gm- /EHsc /MD /GS /Gy /fp:precise /permissive- /Zc:wchar_t /Zc:forScope /Zc:inline /Fo"RELEASE\\" /Fd"RELEASE\VC142.PDB" /external:W3 /Gd /TP /analyze- /FC C:\USERS\SCOTT\DESKTOP\HNDYEAR2 COLLAGE WORK\LORDSOFIRON\LORDSOFIRON\ITEMHEAL.CPP
^C:\USERS\SCOTT\DESKTOP\HNDYEAR2 COLLAGE WORK\LORDSOFIRON\LORDSOFIRON\LEVELSCREEN.CPP
/c /I"SFML-2.5.1\INCLUDE" /Zi /nologo /W3 /WX- /diagnostics:column /sdl /O2 /Oi /Oy- /GL /D _MBCS /Gm- /EHsc /MD /GS /Gy /fp:precise /permissive- /Zc:wchar_t /Zc:forScope /Zc:inline /Fo"RELEASE\\" /Fd"RELEASE\VC142.PDB" /external:W3 /Gd /TP /analyze- /FC C:\USERS\SCOTT\DESKTOP\HNDYEAR2 COLLAGE WORK\LORDSOFIRON\LORDSOFIRON\LEVELSCREEN.CPP
^C:\USERS\SCOTT\DESKTOP\HNDYEAR2 COLLAGE WORK\LORDSOFIRON\LORDSOFIRON\MAIN.CPP
/c /I"SFML-2.5.1\INCLUDE" /Zi /nologo /W3 /WX- /diagnostics:column /sdl /O2 /Oi /Oy- /GL /D _MBCS /Gm- /EHsc /MD /GS /Gy /fp:precise /permissive- /Zc:wchar_t /Zc:forScope /Zc:inline /Fo"RELEASE\\" /Fd"RELEASE\VC142.PDB" /external:W3 /Gd /TP /analyze- /FC C:\USERS\SCOTT\DESKTOP\HNDYEAR2 COLLAGE WORK\LORDSOFIRON\LORDSOFIRON\MAIN.CPP
^C:\USERS\SCOTT\DESKTOP\HNDYEAR2 COLLAGE WORK\LORDSOFIRON\LORDSOFIRON\PLAYER.CPP
/c /I"SFML-2.5.1\INCLUDE" /Zi /nologo /W3 /WX- /diagnostics:column /sdl /O2 /Oi /Oy- /GL /D _MBCS /Gm- /EHsc /MD /GS /Gy /fp:precise /permissive- /Zc:wchar_t /Zc:forScope /Zc:inline /Fo"RELEASE\\" /Fd"RELEASE\VC142.PDB" /external:W3 /Gd /TP /analyze- /FC C:\USERS\SCOTT\DESKTOP\HNDYEAR2 COLLAGE WORK\LORDSOFIRON\LORDSOFIRON\PLAYER.CPP
