^C:\USERS\SCOTT\DESKTOP\HNDYEAR2 COLLAGE WORK\LORDSOFIRON\LORDSOFIRON\ANIMATINGOBJECT.CPP|C:\USERS\SCOTT\DESKTOP\HNDYEAR2 COLLAGE WORK\LORDSOFIRON\LORDSOFIRON\ASSETMANAGER.CPP|C:\USERS\SCOTT\DESKTOP\HNDYEAR2 COLLAGE WORK\LORDSOFIRON\LORDSOFIRON\BADGUYZ.CPP|C:\USERS\SCOTT\DESKTOP\HNDYEAR2 COLLAGE WORK\LORDSOFIRON\LORDSOFIRON\EXITE.CPP|C:\USERS\SCOTT\DESKTOP\HNDYEAR2 COLLAGE WORK\LORDSOFIRON\LORDSOFIRON\EXITT.CPP|C:\USERS\SCOTT\DESKTOP\HNDYEAR2 COLLAGE WORK\LORDSOFIRON\LORDSOFIRON\FLOOR.CPP|C:\USERS\SCOTT\DESKTOP\HNDYEAR2 COLLAGE WORK\LORDSOFIRON\LORDSOFIRON\GAME.CPP|C:\USERS\SCOTT\DESKTOP\HNDYEAR2 COLLAGE WORK\LORDSOFIRON\LORDSOFIRON\LEVELSCREEN.CPP|C:\USERS\SCOTT\DESKTOP\HNDYEAR2 COLLAGE WORK\LORDSOFIRON\LORDSOFIRON\MAIN.CPP|C:\USERS\SCOTT\DESKTOP\HNDYEAR2 COLLAGE WORK\LORDSOFIRON\LORDSOFIRON\MENUSYSTEM.CPP|C:\USERS\SCOTT\DESKTOP\HNDYEAR2 COLLAGE WORK\LORDSOFIRON\LORDSOFIRON\MUD.CPP|C:\USERS\SCOTT\DESKTOP\HNDYEAR2 COLLAGE WORK\LORDSOFIRON\LORDSOFIRON\PLAYER.CPP|C:\USERS\SCOTT\DESKTOP\HNDYEAR2 COLLAGE WORK\LORDSOFIRON\LORDSOFIRON\PLAYERKNIFE.CPP|C:\USERS\SCOTT\DESKTOP\HNDYEAR2 COLLAGE WORK\LORDSOFIRON\LORDSOFIRON\SPRITEOBJECT.CPP|C:\USERS\SCOTT\DESKTOP\HNDYEAR2 COLLAGE WORK\LORDSOFIRON\LORDSOFIRON\TREEB.CPP|C:\USERS\SCOTT\DESKTOP\HNDYEAR2 COLLAGE WORK\LORDSOFIRON\LORDSOFIRON\TREET.CPP|C:\USERS\SCOTT\DESKTOP\HNDYEAR2 COLLAGE WORK\LORDSOFIRON\LORDSOFIRON\WALL.CPP|C:\USERS\SCOTT\DESKTOP\HNDYEAR2 COLLAGE WORK\LORDSOFIRON\LORDSOFIRON\WALLEDGE.CPP
C:\USERS\SCOTT\DESKTOP\HNDYEAR2 COLLAGE WORK\LORDSOFIRON\LORDSOFIRON\RELEASE\VC142.PDB
C:\USERS\SCOTT\DESKTOP\HNDYEAR2 COLLAGE WORK\LORDSOFIRON\LORDSOFIRON\RELEASE\WALLEDGE.OBJ
C:\USERS\SCOTT\DESKTOP\HNDYEAR2 COLLAGE WORK\LORDSOFIRON\LORDSOFIRON\RELEASE\WALL.OBJ
C:\USERS\SCOTT\DESKTOP\HNDYEAR2 COLLAGE WORK\LORDSOFIRON\LORDSOFIRON\RELEASE\TREET.OBJ
C:\USERS\SCOTT\DESKTOP\HNDYEAR2 COLLAGE WORK\LORDSOFIRON\LORDSOFIRON\RELEASE\TREEB.OBJ
C:\USERS\SCOTT\DESKTOP\HNDYEAR2 COLLAGE WORK\LORDSOFIRON\LORDSOFIRON\RELEASE\SPRITEOBJECT.OBJ
C:\USERS\SCOTT\DESKTOP\HNDYEAR2 COLLAGE WORK\LORDSOFIRON\LORDSOFIRON\RELEASE\PLAYERKNIFE.OBJ
C:\USERS\SCOTT\DESKTOP\HNDYEAR2 COLLAGE WORK\LORDSOFIRON\LORDSOFIRON\RELEASE\PLAYER.OBJ
C:\USERS\SCOTT\DESKTOP\HNDYEAR2 COLLAGE WORK\LORDSOFIRON\LORDSOFIRON\RELEASE\MUD.OBJ
C:\USERS\SCOTT\DESKTOP\HNDYEAR2 COLLAGE WORK\LORDSOFIRON\LORDSOFIRON\RELEASE\MENUSYSTEM.OBJ
C:\USERS\SCOTT\DESKTOP\HNDYEAR2 COLLAGE WORK\LORDSOFIRON\LORDSOFIRON\RELEASE\MAIN.OBJ
C:\USERS\SCOTT\DESKTOP\HNDYEAR2 COLLAGE WORK\LORDSOFIRON\LORDSOFIRON\RELEASE\LEVELSCREEN.OBJ
C:\USERS\SCOTT\DESKTOP\HNDYEAR2 COLLAGE WORK\LORDSOFIRON\LORDSOFIRON\RELEASE\GAME.OBJ
C:\USERS\SCOTT\DESKTOP\HNDYEAR2 COLLAGE WORK\LORDSOFIRON\LORDSOFIRON\RELEASE\FLOOR.OBJ
C:\USERS\SCOTT\DESKTOP\HNDYEAR2 COLLAGE WORK\LORDSOFIRON\LORDSOFIRON\RELEASE\EXITT.OBJ
C:\USERS\SCOTT\DESKTOP\HNDYEAR2 COLLAGE WORK\LORDSOFIRON\LORDSOFIRON\RELEASE\EXITE.OBJ
C:\USERS\SCOTT\DESKTOP\HNDYEAR2 COLLAGE WORK\LORDSOFIRON\LORDSOFIRON\RELEASE\BADGUYZ.OBJ
C:\USERS\SCOTT\DESKTOP\HNDYEAR2 COLLAGE WORK\LORDSOFIRON\LORDSOFIRON\RELEASE\ASSETMANAGER.OBJ
C:\USERS\SCOTT\DESKTOP\HNDYEAR2 COLLAGE WORK\LORDSOFIRON\LORDSOFIRON\RELEASE\ANIMATINGOBJECT.OBJ
^C:\USERS\SCOTT\DESKTOP\HNDYEAR2 COLLAGE WORK\LORDSOFIRON\LORDSOFIRON\ANIMATINGOBJECT.CPP
C:\USERS\SCOTT\DESKTOP\HNDYEAR2 COLLAGE WORK\LORDSOFIRON\LORDSOFIRON\RELEASE\VC142.PDB
^C:\USERS\SCOTT\DESKTOP\HNDYEAR2 COLLAGE WORK\LORDSOFIRON\LORDSOFIRON\ASSETMANAGER.CPP
C:\USERS\SCOTT\DESKTOP\HNDYEAR2 COLLAGE WORK\LORDSOFIRON\LORDSOFIRON\RELEASE\VC142.PDB
^C:\USERS\SCOTT\DESKTOP\HNDYEAR2 COLLAGE WORK\LORDSOFIRON\LORDSOFIRON\FLOOR.CPP
C:\USERS\SCOTT\DESKTOP\HNDYEAR2 COLLAGE WORK\LORDSOFIRON\LORDSOFIRON\RELEASE\VC142.PDB
^C:\USERS\SCOTT\DESKTOP\HNDYEAR2 COLLAGE WORK\LORDSOFIRON\LORDSOFIRON\MENUSYSTEM.CPP
C:\USERS\SCOTT\DESKTOP\HNDYEAR2 COLLAGE WORK\LORDSOFIRON\LORDSOFIRON\RELEASE\VC142.PDB
^C:\USERS\SCOTT\DESKTOP\HNDYEAR2 COLLAGE WORK\LORDSOFIRON\LORDSOFIRON\MUD.CPP
C:\USERS\SCOTT\DESKTOP\HNDYEAR2 COLLAGE WORK\LORDSOFIRON\LORDSOFIRON\RELEASE\VC142.PDB
^C:\USERS\SCOTT\DESKTOP\HNDYEAR2 COLLAGE WORK\LORDSOFIRON\LORDSOFIRON\PLAYERKNIFE.CPP
C:\USERS\SCOTT\DESKTOP\HNDYEAR2 COLLAGE WORK\LORDSOFIRON\LORDSOFIRON\RELEASE\VC142.PDB
^C:\USERS\SCOTT\DESKTOP\HNDYEAR2 COLLAGE WORK\LORDSOFIRON\LORDSOFIRON\SPRITEOBJECT.CPP
C:\USERS\SCOTT\DESKTOP\HNDYEAR2 COLLAGE WORK\LORDSOFIRON\LORDSOFIRON\RELEASE\VC142.PDB
^C:\USERS\SCOTT\DESKTOP\HNDYEAR2 COLLAGE WORK\LORDSOFIRON\LORDSOFIRON\TREEB.CPP
C:\USERS\SCOTT\DESKTOP\HNDYEAR2 COLLAGE WORK\LORDSOFIRON\LORDSOFIRON\RELEASE\VC142.PDB
^C:\USERS\SCOTT\DESKTOP\HNDYEAR2 COLLAGE WORK\LORDSOFIRON\LORDSOFIRON\TREET.CPP
C:\USERS\SCOTT\DESKTOP\HNDYEAR2 COLLAGE WORK\LORDSOFIRON\LORDSOFIRON\RELEASE\VC142.PDB
^C:\USERS\SCOTT\DESKTOP\HNDYEAR2 COLLAGE WORK\LORDSOFIRON\LORDSOFIRON\WALL.CPP
C:\USERS\SCOTT\DESKTOP\HNDYEAR2 COLLAGE WORK\LORDSOFIRON\LORDSOFIRON\RELEASE\VC142.PDB
^C:\USERS\SCOTT\DESKTOP\HNDYEAR2 COLLAGE WORK\LORDSOFIRON\LORDSOFIRON\WALLEDGE.CPP
C:\USERS\SCOTT\DESKTOP\HNDYEAR2 COLLAGE WORK\LORDSOFIRON\LORDSOFIRON\RELEASE\VC142.PDB
^C:\USERS\SCOTT\DESKTOP\HNDYEAR2 COLLAGE WORK\LORDSOFIRON\LORDSOFIRON\EXITE.CPP|C:\USERS\SCOTT\DESKTOP\HNDYEAR2 COLLAGE WORK\LORDSOFIRON\LORDSOFIRON\EXITT.CPP|C:\USERS\SCOTT\DESKTOP\HNDYEAR2 COLLAGE WORK\LORDSOFIRON\LORDSOFIRON\GAME.CPP|C:\USERS\SCOTT\DESKTOP\HNDYEAR2 COLLAGE WORK\LORDSOFIRON\LORDSOFIRON\ITEMHEAL.CPP|C:\USERS\SCOTT\DESKTOP\HNDYEAR2 COLLAGE WORK\LORDSOFIRON\LORDSOFIRON\LEVELSCREEN.CPP|C:\USERS\SCOTT\DESKTOP\HNDYEAR2 COLLAGE WORK\LORDSOFIRON\LORDSOFIRON\MAIN.CPP|C:\USERS\SCOTT\DESKTOP\HNDYEAR2 COLLAGE WORK\LORDSOFIRON\LORDSOFIRON\PLAYER.CPP
C:\USERS\SCOTT\DESKTOP\HNDYEAR2 COLLAGE WORK\LORDSOFIRON\LORDSOFIRON\RELEASE\VC142.PDB
C:\USERS\SCOTT\DESKTOP\HNDYEAR2 COLLAGE WORK\LORDSOFIRON\LORDSOFIRON\RELEASE\PLAYER.OBJ
C:\USERS\SCOTT\DESKTOP\HNDYEAR2 COLLAGE WORK\LORDSOFIRON\LORDSOFIRON\RELEASE\MAIN.OBJ
C:\USERS\SCOTT\DESKTOP\HNDYEAR2 COLLAGE WORK\LORDSOFIRON\LORDSOFIRON\RELEASE\LEVELSCREEN.OBJ
C:\USERS\SCOTT\DESKTOP\HNDYEAR2 COLLAGE WORK\LORDSOFIRON\LORDSOFIRON\RELEASE\ITEMHEAL.OBJ
C:\USERS\SCOTT\DESKTOP\HNDYEAR2 COLLAGE WORK\LORDSOFIRON\LORDSOFIRON\RELEASE\GAME.OBJ
C:\USERS\SCOTT\DESKTOP\HNDYEAR2 COLLAGE WORK\LORDSOFIRON\LORDSOFIRON\RELEASE\EXITT.OBJ
C:\USERS\SCOTT\DESKTOP\HNDYEAR2 COLLAGE WORK\LORDSOFIRON\LORDSOFIRON\RELEASE\EXITE.OBJ
^C:\USERS\SCOTT\DESKTOP\HNDYEAR2 COLLAGE WORK\LORDSOFIRON\LORDSOFIRON\BADGUYZ.CPP|C:\USERS\SCOTT\DESKTOP\HNDYEAR2 COLLAGE WORK\LORDSOFIRON\LORDSOFIRON\GAME.CPP|C:\USERS\SCOTT\DESKTOP\HNDYEAR2 COLLAGE WORK\LORDSOFIRON\LORDSOFIRON\PLAYER.CPP
C:\USERS\SCOTT\DESKTOP\HNDYEAR2 COLLAGE WORK\LORDSOFIRON\LORDSOFIRON\RELEASE\VC142.PDB
C:\USERS\SCOTT\DESKTOP\HNDYEAR2 COLLAGE WORK\LORDSOFIRON\LORDSOFIRON\RELEASE\PLAYER.OBJ
C:\USERS\SCOTT\DESKTOP\HNDYEAR2 COLLAGE WORK\LORDSOFIRON\LORDSOFIRON\RELEASE\GAME.OBJ
C:\USERS\SCOTT\DESKTOP\HNDYEAR2 COLLAGE WORK\LORDSOFIRON\LORDSOFIRON\RELEASE\BADGUYZ.OBJ
^C:\USERS\SCOTT\DESKTOP\HNDYEAR2 COLLAGE WORK\LORDSOFIRON\LORDSOFIRON\BADGUYZ.CPP|C:\USERS\SCOTT\DESKTOP\HNDYEAR2 COLLAGE WORK\LORDSOFIRON\LORDSOFIRON\EXITE.CPP|C:\USERS\SCOTT\DESKTOP\HNDYEAR2 COLLAGE WORK\LORDSOFIRON\LORDSOFIRON\EXITT.CPP|C:\USERS\SCOTT\DESKTOP\HNDYEAR2 COLLAGE WORK\LORDSOFIRON\LORDSOFIRON\GAME.CPP|C:\USERS\SCOTT\DESKTOP\HNDYEAR2 COLLAGE WORK\LORDSOFIRON\LORDSOFIRON\ITEMHEAL.CPP|C:\USERS\SCOTT\DESKTOP\HNDYEAR2 COLLAGE WORK\LORDSOFIRON\LORDSOFIRON\LEVELSCREEN.CPP|C:\USERS\SCOTT\DESKTOP\HNDYEAR2 COLLAGE WORK\LORDSOFIRON\LORDSOFIRON\MAIN.CPP|C:\USERS\SCOTT\DESKTOP\HNDYEAR2 COLLAGE WORK\LORDSOFIRON\LORDSOFIRON\PLAYER.CPP
C:\USERS\SCOTT\DESKTOP\HNDYEAR2 COLLAGE WORK\LORDSOFIRON\LORDSOFIRON\RELEASE\VC142.PDB
C:\USERS\SCOTT\DESKTOP\HNDYEAR2 COLLAGE WORK\LORDSOFIRON\LORDSOFIRON\RELEASE\PLAYER.OBJ
C:\USERS\SCOTT\DESKTOP\HNDYEAR2 COLLAGE WORK\LORDSOFIRON\LORDSOFIRON\RELEASE\MAIN.OBJ
C:\USERS\SCOTT\DESKTOP\HNDYEAR2 COLLAGE WORK\LORDSOFIRON\LORDSOFIRON\RELEASE\LEVELSCREEN.OBJ
C:\USERS\SCOTT\DESKTOP\HNDYEAR2 COLLAGE WORK\LORDSOFIRON\LORDSOFIRON\RELEASE\ITEMHEAL.OBJ
C:\USERS\SCOTT\DESKTOP\HNDYEAR2 COLLAGE WORK\LORDSOFIRON\LORDSOFIRON\RELEASE\GAME.OBJ
C:\USERS\SCOTT\DESKTOP\HNDYEAR2 COLLAGE WORK\LORDSOFIRON\LORDSOFIRON\RELEASE\EXITT.OBJ
C:\USERS\SCOTT\DESKTOP\HNDYEAR2 COLLAGE WORK\LORDSOFIRON\LORDSOFIRON\RELEASE\EXITE.OBJ
C:\USERS\SCOTT\DESKTOP\HNDYEAR2 COLLAGE WORK\LORDSOFIRON\LORDSOFIRON\RELEASE\BADGUYZ.OBJ
^C:\USERS\SCOTT\DESKTOP\HNDYEAR2 COLLAGE WORK\LORDSOFIRON\LORDSOFIRON\BADGUYZ.CPP
C:\USERS\SCOTT\DESKTOP\HNDYEAR2 COLLAGE WORK\LORDSOFIRON\LORDSOFIRON\RELEASE\VC142.PDB
^C:\USERS\SCOTT\DESKTOP\HNDYEAR2 COLLAGE WORK\LORDSOFIRON\LORDSOFIRON\EXITE.CPP
C:\USERS\SCOTT\DESKTOP\HNDYEAR2 COLLAGE WORK\LORDSOFIRON\LORDSOFIRON\RELEASE\VC142.PDB
^C:\USERS\SCOTT\DESKTOP\HNDYEAR2 COLLAGE WORK\LORDSOFIRON\LORDSOFIRON\EXITT.CPP
C:\USERS\SCOTT\DESKTOP\HNDYEAR2 COLLAGE WORK\LORDSOFIRON\LORDSOFIRON\RELEASE\VC142.PDB
^C:\USERS\SCOTT\DESKTOP\HNDYEAR2 COLLAGE WORK\LORDSOFIRON\LORDSOFIRON\GAME.CPP
C:\USERS\SCOTT\DESKTOP\HNDYEAR2 COLLAGE WORK\LORDSOFIRON\LORDSOFIRON\RELEASE\VC142.PDB
^C:\USERS\SCOTT\DESKTOP\HNDYEAR2 COLLAGE WORK\LORDSOFIRON\LORDSOFIRON\ITEMHEAL.CPP
C:\USERS\SCOTT\DESKTOP\HNDYEAR2 COLLAGE WORK\LORDSOFIRON\LORDSOFIRON\RELEASE\VC142.PDB
^C:\USERS\SCOTT\DESKTOP\HNDYEAR2 COLLAGE WORK\LORDSOFIRON\LORDSOFIRON\LEVELSCREEN.CPP
C:\USERS\SCOTT\DESKTOP\HNDYEAR2 COLLAGE WORK\LORDSOFIRON\LORDSOFIRON\RELEASE\VC142.PDB
^C:\USERS\SCOTT\DESKTOP\HNDYEAR2 COLLAGE WORK\LORDSOFIRON\LORDSOFIRON\MAIN.CPP
C:\USERS\SCOTT\DESKTOP\HNDYEAR2 COLLAGE WORK\LORDSOFIRON\LORDSOFIRON\RELEASE\VC142.PDB
^C:\USERS\SCOTT\DESKTOP\HNDYEAR2 COLLAGE WORK\LORDSOFIRON\LORDSOFIRON\PLAYER.CPP
C:\USERS\SCOTT\DESKTOP\HNDYEAR2 COLLAGE WORK\LORDSOFIRON\LORDSOFIRON\RELEASE\VC142.PDB
