^C:\USERS\SCOTT\DESKTOP\HNDYEAR2 COLLAGE WORK\LORDSOFIRON\LORDSOFIRON\RELEASE\ANIMATINGOBJECT.OBJ|C:\USERS\SCOTT\DESKTOP\HNDYEAR2 COLLAGE WORK\LORDSOFIRON\LORDSOFIRON\RELEASE\ASSETMANAGER.OBJ|C:\USERS\SCOTT\DESKTOP\HNDYEAR2 COLLAGE WORK\LORDSOFIRON\LORDSOFIRON\RELEASE\BADGUYZ.OBJ|C:\USERS\SCOTT\DESKTOP\HNDYEAR2 COLLAGE WORK\LORDSOFIRON\LORDSOFIRON\RELEASE\EXITE.OBJ|C:\USERS\SCOTT\DESKTOP\HNDYEAR2 COLLAGE WORK\LORDSOFIRON\LORDSOFIRON\RELEASE\EXITT.OBJ|C:\USERS\SCOTT\DESKTOP\HNDYEAR2 COLLAGE WORK\LORDSOFIRON\LORDSOFIRON\RELEASE\FLOOR.OBJ|C:\USERS\SCOTT\DESKTOP\HNDYEAR2 COLLAGE WORK\LORDSOFIRON\LORDSOFIRON\RELEASE\GAME.OBJ|C:\USERS\SCOTT\DESKTOP\HNDYEAR2 COLLAGE WORK\LORDSOFIRON\LORDSOFIRON\RELEASE\ITEMHEAL.OBJ|C:\USERS\SCOTT\DESKTOP\HNDYEAR2 COLLAGE WORK\LORDSOFIRON\LORDSOFIRON\RELEASE\LEVELSCREEN.OBJ|C:\USERS\SCOTT\DESKTOP\HNDYEAR2 COLLAGE WORK\LORDSOFIRON\LORDSOFIRON\RELEASE\MAIN.OBJ|C:\USERS\SCOTT\DESKTOP\HNDYEAR2 COLLAGE WORK\LORDSOFIRON\LORDSOFIRON\RELEASE\MENUSYSTEM.OBJ|C:\USERS\SCOTT\DESKTOP\HNDYEAR2 COLLAGE WORK\LORDSOFIRON\LORDSOFIRON\RELEASE\MUD.OBJ|C:\USERS\SCOTT\DESKTOP\HNDYEAR2 COLLAGE WORK\LORDSOFIRON\LORDSOFIRON\RELEASE\PLAYER.OBJ|C:\USERS\SCOTT\DESKTOP\HNDYEAR2 COLLAGE WORK\LORDSOFIRON\LORDSOFIRON\RELEASE\SPRITEOBJECT.OBJ|C:\USERS\SCOTT\DESKTOP\HNDYEAR2 COLLAGE WORK\LORDSOFIRON\LORDSOFIRON\RELEASE\TREEB.OBJ|C:\USERS\SCOTT\DESKTOP\HNDYEAR2 COLLAGE WORK\LORDSOFIRON\LORDSOFIRON\RELEASE\TREET.OBJ|C:\USERS\SCOTT\DESKTOP\HNDYEAR2 COLLAGE WORK\LORDSOFIRON\LORDSOFIRON\RELEASE\WALL.OBJ|C:\USERS\SCOTT\DESKTOP\HNDYEAR2 COLLAGE WORK\LORDSOFIRON\LORDSOFIRON\RELEASE\WALLEDGE.OBJ
C:\USERS\SCOTT\DESKTOP\HNDYEAR2 COLLAGE WORK\LORDSOFIRON\LORDSOFIRON\SFML-2.5.1\LIB\SFML-GRAPHICS.LIB
C:\USERS\SCOTT\DESKTOP\HNDYEAR2 COLLAGE WORK\LORDSOFIRON\LORDSOFIRON\SFML-2.5.1\LIB\SFML-WINDOW.LIB
C:\USERS\SCOTT\DESKTOP\HNDYEAR2 COLLAGE WORK\LORDSOFIRON\LORDSOFIRON\SFML-2.5.1\LIB\SFML-AUDIO.LIB
C:\USERS\SCOTT\DESKTOP\HNDYEAR2 COLLAGE WORK\LORDSOFIRON\LORDSOFIRON\SFML-2.5.1\LIB\SFML-SYSTEM.LIB
C:\PROGRAM FILES (X86)\WINDOWS KITS\10\LIB\10.0.19041.0\UM\X86\KERNEL32.LIB
C:\PROGRAM FILES (X86)\WINDOWS KITS\10\LIB\10.0.19041.0\UM\X86\USER32.LIB
C:\PROGRAM FILES (X86)\WINDOWS KITS\10\LIB\10.0.19041.0\UM\X86\GDI32.LIB
C:\PROGRAM FILES (X86)\WINDOWS KITS\10\LIB\10.0.19041.0\UM\X86\WINSPOOL.LIB
C:\PROGRAM FILES (X86)\WINDOWS KITS\10\LIB\10.0.19041.0\UM\X86\COMDLG32.LIB
C:\PROGRAM FILES (X86)\WINDOWS KITS\10\LIB\10.0.19041.0\UM\X86\ADVAPI32.LIB
C:\PROGRAM FILES (X86)\WINDOWS KITS\10\LIB\10.0.19041.0\UM\X86\SHELL32.LIB
C:\PROGRAM FILES (X86)\WINDOWS KITS\10\LIB\10.0.19041.0\UM\X86\OLE32.LIB
C:\PROGRAM FILES (X86)\WINDOWS KITS\10\LIB\10.0.19041.0\UM\X86\OLEAUT32.LIB
C:\PROGRAM FILES (X86)\WINDOWS KITS\10\LIB\10.0.19041.0\UM\X86\UUID.LIB
C:\PROGRAM FILES (X86)\WINDOWS KITS\10\LIB\10.0.19041.0\UM\X86\ODBC32.LIB
C:\PROGRAM FILES (X86)\WINDOWS KITS\10\LIB\10.0.19041.0\UM\X86\ODBCCP32.LIB
C:\USERS\SCOTT\DESKTOP\HNDYEAR2 COLLAGE WORK\LORDSOFIRON\LORDSOFIRON\RELEASE\ANIMATINGOBJECT.OBJ
C:\USERS\SCOTT\DESKTOP\HNDYEAR2 COLLAGE WORK\LORDSOFIRON\LORDSOFIRON\RELEASE\ASSETMANAGER.OBJ
C:\USERS\SCOTT\DESKTOP\HNDYEAR2 COLLAGE WORK\LORDSOFIRON\LORDSOFIRON\RELEASE\BADGUYZ.OBJ
C:\USERS\SCOTT\DESKTOP\HNDYEAR2 COLLAGE WORK\LORDSOFIRON\LORDSOFIRON\RELEASE\EXITE.OBJ
C:\USERS\SCOTT\DESKTOP\HNDYEAR2 COLLAGE WORK\LORDSOFIRON\LORDSOFIRON\RELEASE\EXITT.OBJ
C:\USERS\SCOTT\DESKTOP\HNDYEAR2 COLLAGE WORK\LORDSOFIRON\LORDSOFIRON\RELEASE\FLOOR.OBJ
C:\USERS\SCOTT\DESKTOP\HNDYEAR2 COLLAGE WORK\LORDSOFIRON\LORDSOFIRON\RELEASE\GAME.OBJ
C:\USERS\SCOTT\DESKTOP\HNDYEAR2 COLLAGE WORK\LORDSOFIRON\LORDSOFIRON\RELEASE\ITEMHEAL.OBJ
C:\USERS\SCOTT\DESKTOP\HNDYEAR2 COLLAGE WORK\LORDSOFIRON\LORDSOFIRON\RELEASE\LEVELSCREEN.OBJ
C:\USERS\SCOTT\DESKTOP\HNDYEAR2 COLLAGE WORK\LORDSOFIRON\LORDSOFIRON\RELEASE\MAIN.OBJ
C:\USERS\SCOTT\DESKTOP\HNDYEAR2 COLLAGE WORK\LORDSOFIRON\LORDSOFIRON\RELEASE\MENUSYSTEM.OBJ
C:\USERS\SCOTT\DESKTOP\HNDYEAR2 COLLAGE WORK\LORDSOFIRON\LORDSOFIRON\RELEASE\MUD.OBJ
C:\USERS\SCOTT\DESKTOP\HNDYEAR2 COLLAGE WORK\LORDSOFIRON\LORDSOFIRON\RELEASE\PLAYER.OBJ
C:\USERS\SCOTT\DESKTOP\HNDYEAR2 COLLAGE WORK\LORDSOFIRON\LORDSOFIRON\RELEASE\SPRITEOBJECT.OBJ
C:\USERS\SCOTT\DESKTOP\HNDYEAR2 COLLAGE WORK\LORDSOFIRON\LORDSOFIRON\RELEASE\TREEB.OBJ
C:\USERS\SCOTT\DESKTOP\HNDYEAR2 COLLAGE WORK\LORDSOFIRON\LORDSOFIRON\RELEASE\TREET.OBJ
C:\USERS\SCOTT\DESKTOP\HNDYEAR2 COLLAGE WORK\LORDSOFIRON\LORDSOFIRON\RELEASE\WALL.OBJ
C:\USERS\SCOTT\DESKTOP\HNDYEAR2 COLLAGE WORK\LORDSOFIRON\LORDSOFIRON\RELEASE\WALLEDGE.OBJ
C:\WINDOWS\GLOBALIZATION\SORTING\SORTDEFAULT.NLS
C:\PROGRAM FILES (X86)\MICROSOFT VISUAL STUDIO\2019\ENTERPRISE\VC\TOOLS\MSVC\14.29.30037\BIN\HOSTX86\X86\C2.DLL
C:\PROGRAM FILES (X86)\MICROSOFT VISUAL STUDIO\2019\ENTERPRISE\VC\TOOLS\MSVC\14.29.30037\LIB\X86\MSVCPRT.LIB
C:\PROGRAM FILES (X86)\MICROSOFT VISUAL STUDIO\2019\ENTERPRISE\VC\TOOLS\MSVC\14.29.30037\LIB\X86\MSVCRT.LIB
C:\PROGRAM FILES (X86)\MICROSOFT VISUAL STUDIO\2019\ENTERPRISE\VC\TOOLS\MSVC\14.29.30037\LIB\X86\OLDNAMES.LIB
C:\PROGRAM FILES (X86)\MICROSOFT VISUAL STUDIO\2019\ENTERPRISE\VC\TOOLS\MSVC\14.29.30037\LIB\X86\VCRUNTIME.LIB
C:\PROGRAM FILES (X86)\WINDOWS KITS\10\LIB\10.0.19041.0\UCRT\X86\UCRT.LIB
C:\PROGRAM FILES (X86)\MICROSOFT VISUAL STUDIO\2019\ENTERPRISE\VC\TOOLS\MSVC\14.29.30037\BIN\HOSTX86\X86\1033\LINKUI.DLL
C:\USERS\SCOTT\DESKTOP\HNDYEAR2 COLLAGE WORK\LORDSOFIRON\LORDSOFIRON\RELEASE\LORDSOFIRON.IPDB
C:\USERS\SCOTT\DESKTOP\HNDYEAR2 COLLAGE WORK\LORDSOFIRON\LORDSOFIRON\RELEASE\LORDSOFIRON.IOBJ
C:\PROGRAM FILES (X86)\MICROSOFT VISUAL STUDIO\2019\ENTERPRISE\VC\TOOLS\MSVC\14.29.30037\BIN\HOSTX86\X86\CVTRES.EXE
C:\WINDOWS\SYSTEM32\TZRES.DLL
